%YAML 1.1
%TAG !u! tag:unity3d.com,2011:
--- !u!114 &11400000
MonoBehaviour:
  m_ObjectHideFlags: 0
  m_CorrespondingSourceObject: {fileID: 0}
  m_PrefabInstance: {fileID: 0}
  m_PrefabAsset: {fileID: 0}
  m_GameObject: {fileID: 0}
  m_Enabled: 1
  m_EditorHideFlags: 0
  m_Script: {fileID: 11500000, guid: 320d1dec788784a0a90c5bad3eec5a99, type: 3}
  m_Name: Level1
  m_EditorClassIdentifier: 
  stage1: {fileID: 500380121368673847, guid: e0901a4aece4747f5bf41be943697b29, type: 3}
  stage2: {fileID: 6047967047119076636, guid: 2031c397f1062412abbc0032ac5ac683, type: 3}
  ObstacleMaterial: {fileID: 2100000, guid: e95aa71463f40461ab0275517a314835, type: 2}
  GroundMaterial: {fileID: 2100000, guid: b8e8c1fc7ef5d4310aaec3b576e07a84, type: 2}
  GroundBorderMaterial: {fileID: 2100000, guid: 64fcfa96e4b334d6aadc62975ef25b11,
    type: 2}
  CharacterBorderMaterial: {fileID: 2100000, guid: 9271a8c3deb2e4121b1474a7eaad7c8b,
    type: 2}
